Categories:Security,System,Internet
License:GPL-3.0-only
Author Email:android@etesync.com
Web Site:https://www.etesync.com
Source Code:https://github.com/etesync/android
Issue Tracker:https://github.com/etesync/android/issues
Changelog:https://github.com/etesync/android/blob/HEAD/ChangeLog.md

Auto Name:EteSync

Repo Type:git
Repo:https://github.com/etesync/android

Build:0.8.0,1
    commit=v0.8.0
    subdir=app
    submodules=yes
    gradle=yes
    prebuild=sed -i -e '/android-reporting/d' -e '/classpath/d' -e '/dependencies/aclasspath "com.android.tools.build:gradle:2.2.0"' ../build.gradle

Build:0.8.1,2
    commit=v0.8.1
    subdir=app
    submodules=yes
    gradle=yes
    prebuild=sed -i -e '/android-reporting/d' -e '/classpath/d' -e '/dependencies/aclasspath "com.android.tools.build:gradle:2.2.0"' ../build.gradle

Build:0.9.1,4
    commit=v0.9.1
    subdir=app
    submodules=yes
    gradle=yes

Build:0.9.2,5
    commit=v0.9.2
    subdir=app
    submodules=yes
    gradle=yes

Build:0.10.0,6
    commit=v0.10.0
    subdir=app
    submodules=yes
    gradle=yes

Build:0.11.0,7
    commit=v0.11.0
    subdir=app
    submodules=yes
    gradle=yes

Build:0.11.1,8
    commit=v0.11.1
    subdir=app
    submodules=yes
    gradle=yes

Build:0.12.0,9
    commit=v0.12.0
    subdir=app
    submodules=yes
    gradle=yes

Build:0.13.0,10
    commit=v0.13.0
    subdir=app
    submodules=yes
    gradle=yes

Build:0.14.0,11
    commit=v0.14.0
    subdir=app
    submodules=yes
    gradle=yes

Build:0.15.0,12
    commit=v0.15.0
    subdir=app
    submodules=yes
    gradle=yes

Build:0.16.0,13
    commit=v0.16.0
    subdir=app
    submodules=yes
    gradle=yes

Build:0.18.0,15
    commit=v0.18.0
    subdir=app
    submodules=yes
    gradle=yes

Build:0.18.1,16
    commit=v0.18.1
    subdir=app
    submodules=yes
    gradle=yes

Build:0.18.2,17
    commit=v0.18.2
    subdir=app
    submodules=yes
    gradle=yes

Build:0.19.1,19
    commit=v0.19.1
    subdir=app
    submodules=yes
    gradle=yes

Build:0.19.2,20
    commit=v0.19.2
    subdir=app
    submodules=yes
    gradle=yes

Build:0.19.3,21
    commit=v0.19.3
    subdir=app
    submodules=yes
    gradle=yes

Build:0.19.4,22
    commit=v0.19.4
    subdir=app
    submodules=yes
    gradle=yes

Build:0.19.5,23
    commit=v0.19.5
    subdir=app
    submodules=yes
    gradle=yes

Build:0.19.6,24
    commit=v0.19.6
    subdir=app
    submodules=yes
    gradle=yes

Build:0.20.0,25
    disable=old and failing
    commit=v0.20.0
    subdir=app
    submodules=yes
    gradle=yes

Build:0.20.1,26
    commit=v0.20.1
    subdir=app
    submodules=yes
    gradle=yes

Build:0.20.2,27
    commit=v0.20.2
    subdir=app
    submodules=yes
    gradle=yes

Build:0.20.3,28
    commit=v0.20.3
    subdir=app
    submodules=yes
    gradle=yes

Build:0.20.4,29
    commit=0.20.4
    subdir=app
    submodules=yes
    gradle=yes

Build:0.21.0,30
    commit=v0.21.0
    subdir=app
    submodules=yes
    gradle=yes

Build:0.21.1,31
    commit=v0.21.1
    subdir=app
    submodules=yes
    gradle=yes

Build:0.21.2,32
    commit=v0.21.2
    subdir=app
    submodules=yes
    gradle=yes

Build:0.21.4,34
    commit=v0.21.4
    subdir=app
    submodules=yes
    gradle=yes

Build:0.21.5,35
    commit=v0.21.5
    subdir=app
    submodules=yes
    gradle=yes

Build:0.21.6,36
    commit=v0.21.6
    subdir=app
    submodules=yes
    gradle=yes

Build:0.22.0,37
    commit=v0.22.0
    subdir=app
    submodules=yes
    gradle=yes

Build:0.22.1,38
    commit=v0.22.1
    subdir=app
    submodules=yes
    gradle=yes

Build:0.22.2,39
    commit=v0.22.2
    subdir=app
    submodules=yes
    gradle=yes

Build:0.22.3,40
    commit=v0.22.3
    subdir=app
    submodules=yes
    gradle=yes

Build:0.22.4,41
    commit=v0.22.4
    subdir=app
    submodules=yes
    gradle=yes

Maintainer Notes:
Summary and Description are maintained by upstream using fastlane in
the source repo:
https://f-droid.org/docs/All_About_Descriptions_Graphics_and_Screenshots
.

Auto Update Mode:Version v%v
Update Check Mode:Tags
Current Version:0.22.4
Current Version Code:41
